{
    "JoyceTest": "Joyce",
    "page": 1,
    "total_results": 10000,
    "total_pages": 500,
    "results": [
        {
            "popularity": 448.302,
            "vote_count": 3267,
            "video": true,
            "poster_path": "/kK6Oq4JywUNXmJ299efUkv1h6Mn.jpg",
            "id": 419704,
            "adult": false,
            "backdrop_path": "/5BwqwxMEjeFtdknRV792Svo0K1v.jpg",
            "original_language": "en",
            "original_title": "Ad Astra",
            "genre_ids": [
                18,
                878
            ],
            "title": "Ad astra",
            "vote_average": 6,
            "overview": "El futuro cercano, un tiempo en el que tanto la esperanza como la adversidad impulsan a la humanidad a mirar hacia las estrellas y más allá. Mientras un misterioso fenómeno amenaza con destruir la vida en el planeta Tierra, el astronauta Roy McBride emprende una misión a través de la inmensidad del espacio y sus muchos peligros para descubrir la verdad sobre una expedición perdida que décadas antes afrontó audazmente el vacío y el silencio en busca de lo desconocido.",
            "release_date": "2019-09-17"
        },
        {
            "popularity": 300.326,
            "vote_count": 1463,
            "video": false,
            "poster_path": "/wJsIn1YJw4fVnxD19vP43MJWYW5.jpg",
            "id": 545609,
            "adult": false,
            "backdrop_path": "/1R6cvRtZgsYCkh8UFuWFN33xBP4.jpg",
            "original_language": "en",
            "original_title": "Extraction",
            "genre_ids": [
                28,
                18,
                53
            ],
            "title": "Tyler Rake",
            "vote_average": 7.6,
            "overview": "Tyler Rake, un intrépido mercenario que ofrece sus servicios en el mercado negro, emprende una peligrosa misión cuando es contratado para rescatar al hijo secuestrado de un señor del crimen de Bombay…",
            "release_date": "2020-04-24"
        },
        {
            "popularity": 339.787,
            "vote_count": 0,
            "video": false,
            "poster_path": "/mWOkjqqzWiaFC65i2nFuMzM9jne.jpg",
            "id": 668203,
            "adult": false,
            "backdrop_path": "/wuJpiGNGv7wLg52ONizLrOugYp9.jpg",
            "original_language": "en",
            "original_title": "Scary Movie 6",
            "genre_ids": [
                35,
                27,
                53
            ],
            "title": "Scary Movie 6",
            "vote_average": 0,
            "overview": "",
            "release_date": "2021-04-02"
        },
        {
            "popularity": 186.038,
            "vote_count": 3552,
            "video": false,
            "poster_path": "/jYbANSoj6qGTbDkstq9J5Vy8fRF.jpg",
            "id": 454626,
            "adult": false,
            "backdrop_path": "/1NNFH01APbTRj3xbxRM3xqM3OuN.jpg",
            "original_language": "en",
            "original_title": "Sonic the Hedgehog",
            "genre_ids": [
                28,
                35,
                878,
                10751
            ],
            "title": "Sonic, la película",
            "vote_average": 7.6,
            "overview": "Sonic, el famoso erizo azul de SEGA vivirá su primera aventura en la pantalla grande. En esta adaptación cinematográfica basada en la conocida saga de videojuegos podremos ver a los personajes icónicos de la franquicia. Su protagonista será Sonic, el erizo con la habilidad de correr a la velocidad del sonido y que, junto con sus amigos el zorro Tails y el equidna Knuckles, combaten con el malvado Doctor Eggman, que siempre está tratando de dominar el mundo y apoderarse de las esmeraldas del caos.",
            "release_date": "2020-02-12"
        },
        {
            "popularity": 130.062,
            "vote_count": 5,
            "video": false,
            "poster_path": "/iahnE0ZNuB2fBVKJYi0H99DYeq1.jpg",
            "id": 117084,
            "adult": false,
            "backdrop_path": "/uOTqcE2spVFEgJp6QkFNA7OQTNz.jpg",
            "original_language": "ja",
            "original_title": "クレヨンしんちゃん 嵐を呼ぶ アッパレ!戦国大合戦",
            "genre_ids": [
                16
            ],
            "title": "Shin Chan: El pequeño samurái",
            "vote_average": 5,
            "overview": "Todo comenzó cuando Nevado excavó un hoyo en el jardín. Allí Shin Chan encontró una carta proveniente del período Sengoku que se corresponde con 1574 que fue cuando las guerras civiles. Una vez lo leyó fue teletransportado a esa época.",
            "release_date": "2002-04-20"
        },
        {
            "popularity": 195.72,
            "vote_count": 2056,
            "video": false,
            "poster_path": "/qdwpe2rk2xJ0MwO64ouVTNOyTzD.jpg",
            "id": 338762,
            "adult": false,
            "backdrop_path": "/ocUrMYbdjknu2TwzMHKT9PBBQRw.jpg",
            "original_language": "en",
            "original_title": "Bloodshot",
            "genre_ids": [
                28,
                878
            ],
            "title": "Bloodshot",
            "vote_average": 7.1,
            "overview": "Ray Garrison, también conocido como Bloodshot, es resucitado por la compañía Rising Spirit Technologies a través del uso de nanotecnología. Mientras lucha por recuperar la memoria, Ray trata de volver al ser el que era antes de sufrir el accidente que dejaría amnésico. Película basada en el cómic \"Valiant\", creado por Kevin VanHook, Don Perlin y Bob Layton.",
            "release_date": "2020-03-05"
        },
        {
            "popularity": 166.666,
            "vote_count": 3547,
            "video": false,
            "poster_path": "/dicP4RZkcgJi9udelg6QuYxf4K7.jpg",
            "id": 495764,
            "adult": false,
            "backdrop_path": "/uozb2VeD87YmhoUP1RrGWfzuCrr.jpg",
            "original_language": "en",
            "original_title": "Birds of Prey (and the Fantabulous Emancipation of One Harley Quinn)",
            "genre_ids": [
                28,
                35,
                80
            ],
            "title": "Aves de presa (y la fantabulosa emancipación de Harley Quinn)",
            "vote_average": 7.2,
            "overview": "Después de separarse de Joker, Harley Quinn y otras tres heroínas (Canario Negro, Cazadora y Renée Montoya) unen sus fuerzas para salvar a una niña (Cassandra Cain) del malvado rey del crimen Máscara Negra.",
            "release_date": "2020-02-05"
        },
        {
            "popularity": 151.912,
            "vote_count": 4384,
            "video": false,
            "poster_path": "/16G2wZAkmKqSGK3it2VPjco5oyn.jpg",
            "id": 181812,
            "adult": false,
            "backdrop_path": "/jOzrELAzFxtMx2I4uDGHOotdfsS.jpg",
            "original_language": "en",
            "original_title": "Star Wars: The Rise of Skywalker",
            "genre_ids": [
                28,
                12,
                878
            ],
            "title": "Star Wars: El ascenso de Skywalker",
            "vote_average": 6.5,
            "overview": "La Resistencia sobreviviente se enfrenta a la Primera Orden una vez más mientras continúa el viaje de Rey, Finn y Poe Dameron. Con el poder y el conocimiento de las generaciones detrás de ellos, comienza la batalla final.",
            "release_date": "2019-12-18"
        },
        {
            "popularity": 142.653,
            "vote_count": 3,
            "video": false,
            "poster_path": "/oiFxdnsQyGs3DBLzHzW92GrDR6w.jpg",
            "id": 682071,
            "adult": false,
            "backdrop_path": "/6I6ZhQrX4L4KIxSzlgg8zc1BSLr.jpg",
            "original_language": "en",
            "original_title": "To the Beat! Back 2 School",
            "genre_ids": [
                35,
                18,
                10751
            ],
            "title": "To the Beat! Back 2 School",
            "vote_average": 4.8,
            "overview": "",
            "release_date": "2020-03-10"
        },
        {
            "popularity": 123.969,
            "vote_count": 3690,
            "video": false,
            "poster_path": "/hIX9L34Zq6TMr81LhKMMZHYJYJ5.jpg",
            "id": 38700,
            "adult": false,
            "backdrop_path": "/upUy2QhMZEmtypPW3PdieKLAHxh.jpg",
            "original_language": "en",
            "original_title": "Bad Boys for Life",
            "genre_ids": [
                28,
                80,
                53
            ],
            "title": "Bad Boys for Life",
            "vote_average": 7.2,
            "overview": "El Departamento de Policía de Miami y su equipo de élite AMMO intentan derribar a Armando Armas, jefe de un cartel de la droga. Armando es un asesino de sangre fría con una naturaleza viciosa y contaminante. Él está comprometido con el trabajo del cartel y es enviado por su madre Isabel, para matar a Mike.",
            "release_date": "2020-01-15"
        },
        {
            "popularity": 129.243,
            "vote_count": 1011,
            "video": false,
            "poster_path": "/jlHL2BH176JApGiLnNQLQgdjMFd.jpg",
            "id": 443791,
            "adult": false,
            "backdrop_path": "/ww7eC3BqSbFsyE5H5qMde8WkxJ2.jpg",
            "original_language": "en",
            "original_title": "Underwater",
            "genre_ids": [
                28,
                27,
                878,
                53
            ],
            "title": "Underwater",
            "vote_average": 6.4,
            "overview": "Un grupo de investigadores submarinos debe ponerse a salvo después de que un terremoto destroce por completo el laboratorio subterráneo en el que trabajaban.",
            "release_date": "2020-01-08"
        },
        {
            "popularity": 139.542,
            "vote_count": 570,
            "video": false,
            "poster_path": "/y0ZX1ymtnZ4ATsQJjXTPaG9RdWD.jpg",
            "id": 539537,
            "adult": false,
            "backdrop_path": "/x80ZIVGUJ6plcUBcgVZ6DPKT7vc.jpg",
            "original_language": "en",
            "original_title": "Fantasy Island",
            "genre_ids": [
                14,
                27,
                878
            ],
            "title": "Fantasy Island",
            "vote_average": 6,
            "overview": "El enigmático Sr. Roarke hace realidad los sueños de los afortunados huéspedes que acuden a su lujoso y remoto resort tropical. Sin embargo, sus fantasías se convertirán en pesadillas, y los invitados deberán resolver el misterio que oculta la isla para poder escapar con vida. Adaptación en clave de terror del famoso programa de televisión de los años 70 ambientado en un resort ubicado en una isla mágica.",
            "release_date": "2020-02-12"
        },
        {
            "popularity": 80.51,
            "vote_count": 270,
            "video": false,
            "poster_path": "/z9m9wXyxgKr2quonjQ2Pb3xOJ6E.jpg",
            "id": 2267,
            "adult": false,
            "backdrop_path": "/zzhXcdGij5MPfrnpNoC6dKhgT8M.jpg",
            "original_language": "en",
            "original_title": "The Last Mimzy",
            "genre_ids": [
                12,
                18,
                878,
                10751
            ],
            "title": "Mimzy, más allá de la imaginación",
            "vote_average": 6.1,
            "overview": "Durante unas vacaciones, los hermanos Noah (Chris O'Neil) y Emma Wilder (Leigh Wryn) descubren una misteriosa caja negra flotando en el mar. Cuando consiguen abrirla, los niños quedan cautivados por su contenido: un precioso objeto de cristal con un brillo casi sobrenatural, piedras que irradian colores al girar y algo que parece un conejo disecado. Al jugar con estos objetos, los niños van desarrollando unas habilidades extraordinarias. Noah, que nunca había destacado en el colegio, se convierte de repente en un genio de la ciencia y en un gran deportista; además tiene la capacidad de mover objetos sólo con su mente. Emma, con la ayuda del conejo, desarrolla unos poderes parapsicológicos inexplicables. Cuando el profesor de Noah, un hombre muy espiritual, encuentra a los niños, enseguida se da cuenta de que está pasando algo muy raro.",
            "release_date": "2007-02-09"
        },
        {
            "popularity": 166.974,
            "vote_count": 776,
            "video": false,
            "poster_path": "/2KlzkeqqmXaDdXo7D6pq7qQLJoM.jpg",
            "id": 481848,
            "adult": false,
            "backdrop_path": "/9sXHqZTet3Zg5tgcc0hCDo8Tn35.jpg",
            "original_language": "en",
            "original_title": "The Call of the Wild",
            "genre_ids": [
                12,
                18,
                10751
            ],
            "title": "La llamada de lo salvaje",
            "vote_average": 7.2,
            "overview": "Cuenta la historia de Buck, un perro bonachón cuya vida cambia de la noche a la mañana cuando su dueño se muda de California a los exóticos parajes de Alaska durante la Fiebre del Oro a finales del s. XIX. Como novato de un grupo perros de trineo (y posteriormente su líder), Buck experimenta una aventura que jamás olvidará, encontrando su lugar en el mundo y convirtiéndose así en su propio amo.",
            "release_date": "2020-02-19"
        },
        {
            "popularity": 109.689,
            "vote_count": 6931,
            "video": false,
            "poster_path": "/4N55tgxDW0RRATyrZHbx0q9HUKv.jpg",
            "id": 496243,
            "adult": false,
            "backdrop_path": "/TU9NIjwzjoKPwQHoHshkFcQUCG.jpg",
            "original_language": "ko",
            "original_title": "기생충",
            "genre_ids": [
                35,
                18,
                53
            ],
            "title": "Parásitos",
            "vote_average": 8.5,
            "overview": "Tanto Gi Taek como su familia están sin trabajo. Cuando su hijo mayor, Gi Woo, empieza a recibir clases particulares en casa de Park, las dos familias, que tienen mucho en común pese a pertenecer a dos mundos totalmente distintos, comienzan una interrelación de resultados imprevisibles.",
            "release_date": "2019-05-30"
        },
        {
            "popularity": 103.179,
            "id": 530915,
            "video": false,
            "vote_count": 4632,
            "vote_average": 8,
            "title": "1917",
            "release_date": "2019-12-25",
            "original_language": "en",
            "original_title": "1917",
            "genre_ids": [
                10752,
                18,
                28,
                53,
                36
            ],
            "backdrop_path": "/2WgieNR1tGHlpJUsolbVzbUbE1O.jpg",
            "adult": false,
            "overview": "Nos encontramos en el año 1917. La Guerra Mundial amenazaba con cambiar, para siempre, el orden mundial. Ante la amenaza que se cernía, Estados Unidos decidió entrar en el conflicto con el objetivo de desequilibrar la balanza que caracterizaba a la contienda.",
            "poster_path": "/axdhbcZeOsfX3ZpwtgdgPIjc06l.jpg"
        },
        {
            "popularity": 99.8,
            "vote_count": 168,
            "video": false,
            "poster_path": "/csH6GfdO8TI6M6W5U0PChtRBpvC.jpg",
            "id": 689723,
            "adult": false,
            "backdrop_path": "/tuqv0jb0o7sBOivgkagKJHuO6X4.jpg",
            "original_language": "en",
            "original_title": "Dangerous Lies",
            "genre_ids": [
                53
            ],
            "title": "Dangerous Lies",
            "vote_average": 6.4,
            "overview": "Para sorpresa de todos, un anciano millonario le deja su herencia a su nueva cuidadora, que se ve envuelta en una red de engaños y asesinatos. Si quiere sobrevivir, no puede fiarse de nadie, ni siquiera de sus seres queridos",
            "release_date": "2020-04-30"
        },
        {
            "popularity": 106.142,
            "vote_count": 9232,
            "video": false,
            "poster_path": "/iO8QwpUkmKvW0x7dyMLx5M09sHa.jpg",
            "id": 920,
            "adult": false,
            "backdrop_path": "/sd4xN5xi8tKRPrJOWwNiZEile7f.jpg",
            "original_language": "en",
            "original_title": "Cars",
            "genre_ids": [
                12,
                16,
                35,
                10751
            ],
            "title": "Cars",
            "vote_average": 6.8,
            "overview": "El aspirante a campeón de carreras Rayo McQueen está sobre la vía rápida al éxito, la fama y todo lo que él había soñado, hasta que por error toma un desvío inesperado en la polvorienta y solitaria Ruta 66. Su actitud arrogante se desvanece cuando llega a una pequeña comunidad olvidada que le enseña las cosas importantes de la vida que había olvidado.",
            "release_date": "2006-06-08"
        },
        {
            "popularity": 101.114,
            "vote_count": 183,
            "video": false,
            "poster_path": "/dopRyENDtjhaHTtLRcxRjv5pa1K.jpg",
            "id": 597219,
            "adult": false,
            "backdrop_path": "/deTb672Jh4HGh48x4MVwHXIytQU.jpg",
            "original_language": "en",
            "original_title": "The Half of It",
            "genre_ids": [
                35,
                10749
            ],
            "title": "Conquista a medias",
            "vote_average": 7.5,
            "overview": "En esta versión moderna de la historia de \"Cyrano\", una tímida estudiante llamada Ellie ayuda a un deportista del instituto a intentar conquistar a la chica de la que ambos están enamorados.",
            "release_date": "2020-05-01"
        },
        {
            "popularity": 72.224,
            "vote_count": 12,
            "video": false,
            "poster_path": "/fcJz5j4xo6YB7BHL72taslHuF2Z.jpg",
            "id": 560204,
            "adult": false,
            "backdrop_path": "/5M9s83yNYw6KWkbHK3sAayxnAWQ.jpg",
            "original_language": "en",
            "original_title": "Arkansas",
            "genre_ids": [
                80,
                18,
                53
            ],
            "title": "Arkansas",
            "vote_average": 6.5,
            "overview": "Un par de jóvenes camellos de poca monta (Liam Hemsworth & Clark Duke) trabajan para un capo de la droga de Arkansas (Vince Vaughn) al que nunca han visto. Un día una de sus operaciones sale terriblemente mal, con terribles consecuencias.",
            "release_date": "2020-05-05"
        }
    ]
}
